[
  {
    "name": "Ko-Ko Choco",
    "energy": 100,
    "type": "iris",
    "ingredients": [
      "water",
      "sugar",
      "fructose"
    ],
    "value": {
      "albumen": 20,
      "fat": 30,
      "carbohydrates": 40
    },
    "production": "Hershey’s"
  },
  {
    "name": "Sorrento",
    "energy": 200,
    "type": "chocolate",
    "ingredients": [
      "water",
      "sugar",
      "chocolate"
    ],
    "value": {
      "albumen": 50,
      "fat": 17,
      "carbohydrates": 37
    },
    "production": "Ferrero Group"
  },
  {
    "name": "Candy Nut",
    "energy": 235,
    "type": "caramel",
    "ingredients": [
      "water",
      "sugar",
      "fructose",
      "caramel",
      "nut"
    ],
    "value": {
      "albumen": 20,
      "fat": 10,
      "carbohydrates": 30
    },
    "production": "Mars"
  }
]